{
    "company-1": {
        "vacancy" : "Full Stack Backend Developer",
        "nameCompany" : "Envato",
        "address" : "16122 Collins Street West Victoria 8007 Australia",
        "minSalary" : "$5000",
        "maxSalary" : "$8000"
    },
    "company-2": {
        "vacancy" : "System Administrator",
        "nameCompany" : "GitHub",
        "address" : "88 Colin P. Kelly Jr. St. San Francisco, CA 94107 United States",
        "minSalary" : "$7000",
        "maxSalary" : "$9000"
    },
    "company-3": {
        "vacancy" : "UI & UX Designer",
        "nameCompany" : "Linkedin",
        "address" : "222 Second Street in San Francisco",
        "minSalary" : "$3000",
        "maxSalary" : "$7000"
    },
    "company-4": {
        "vacancy" : "Software application developer",
        "nameCompany" : "Microsoft",
        "address" : "Redmond, WA 98052-6399 USA",
        "minSalary" : "$7000",
        "maxSalary" : "$10000"
    },
    "company-5": {
        "vacancy" : "Web developer",
        "nameCompany" : "Amazon",
        "address" : "81226 Seattle, WA 98108-1226 Canada",
        "minSalary" : "$6000",
        "maxSalary" : "$8000"
    },
    "company-6": {
        "vacancy" : "Computer systems engineer",
        "nameCompany" : "Google",
        "address" : "1600 Amphitheatre Parkway California, United States",
        "minSalary" : "$5000",
        "maxSalary" : "$8000"
    },
    "company-7": {
        "vacancy" : "Database administrator",
        "nameCompany" : "PNC",
        "address" : "300, Fifth Avenue The Tower at PNC Plaza Pittsburgh",
        "minSalary" : "$6000",
        "maxSalary" : "$7000"
    },
    "company-8": {
        "vacancy" : "Computer systems analyst",
        "nameCompany" : "AT&T",
        "address" : " 208 S. Akard Street, Suite 2954, Dallas, Texas",
        "minSalary" : "$3000",
        "maxSalary" : "$5000"
    },
    "company-9": {
        "vacancy" : "Software quality assurance engineer",
        "nameCompany" : "IBM",
        "address" : "1 New Orchard Rd; Armonk, New York 10504 USA",
        "minSalary" : "$4000",
        "maxSalary" : "$6000"
    },
    "company-10": {
        "vacancy" : "Network system administrator",
        "nameCompany" : "Aplle",
        "address" : "1 Infinite Loop, Cupertino, CA, 95014",
        "minSalary" : "$7000",
        "maxSalary" : "$9000"
    }
    
}